Server ID,Sponsor,Server Name,Timestamp,Distance,Ping,Download,Upload,Share,IP Address
3744,Nessus GmbH (10G Uplink),Vienna,2018-10-28T17:30:04.417921Z,1.071761208360333,78.44,31355921.243361797,11500866.332540665,,89.144.221.151
3744,Nessus GmbH (10G Uplink),Vienna,2018-10-28T17:40:04.263439Z,1.071761208360333,78.834,19010570.753332853,11571204.672558362,,89.144.221.151
1738,www.drei.at,Vienna,2018-10-28T17:50:04.200137Z,1.071761208360333,95.422,14662777.614471175,11932142.46741545,,89.144.221.151
3744,Nessus GmbH (10G Uplink),Vienna,2018-10-28T18:00:03.583863Z,1.071761208360333,66.774,25344367.209762402,11973099.234211216,,89.144.221.151
5351,UPC Austria,Vienna,2018-10-28T18:10:03.862990Z,1.071761208360333,59.277,26376190.482452553,11561213.369247355,,89.144.221.151
3744,Nessus GmbH (10G Uplink),Vienna,2018-10-28T18:20:03.831871Z,1.071761208360333,79.235,22706130.20419824,11414227.804117577,,89.144.221.151
3744,Nessus GmbH (10G Uplink),Vienna,2018-10-28T18:30:03.884784Z,1.071761208360333,79.154,19325850.78052751,11629401.406044016,,89.144.221.151
3744,Nessus GmbH (10G Uplink),Vienna,2018-10-28T18:40:03.611247Z,1.071761208360333,65.504,6435675.218118598,11630465.637821876,,89.144.221.151
1738,www.drei.at,Vienna,2018-10-28T18:50:03.809555Z,1.071761208360333,65.748,10339473.724532813,11892642.771871679,,89.144.221.151
3744,Nessus GmbH (10G Uplink),Vienna,2018-10-28T19:00:03.454597Z,1.071761208360333,74.091,7701920.286244142,10557967.964360623,,89.144.221.151
1738,www.drei.at,Vienna,2018-10-28T19:10:03.524648Z,1.071761208360333,54.022,7921691.691034149,11169978.81696587,,89.144.221.151
3744,Nessus GmbH (10G Uplink),Vienna,2018-10-28T19:20:03.795828Z,1.071761208360333,52.713,9663443.285959238,11604813.979597349,,89.144.221.151
5351,UPC Austria,Vienna,2018-10-28T19:30:03.254573Z,1.071761208360333,69.031,14193663.880272923,11442923.492815733,,89.144.221.151
15152,fonira Telekom GmbH,Vienna,2018-10-28T19:40:03.288272Z,1.052727892950781,65.832,13613477.65521331,11512058.796886249,,89.144.221.151
1738,www.drei.at,Vienna,2018-10-28T19:50:03.282581Z,1.071761208360333,56.997,11523860.749498587,11654303.750993265,,89.144.221.151
1738,www.drei.at,Vienna,2018-10-28T20:00:03.859944Z,1.071761208360333,56.051,19417904.929182094,11645143.469531858,,89.144.221.151
3744,Nessus GmbH (10G Uplink),Vienna,2018-10-28T20:10:04.437936Z,1.071761208360333,72.534,13803354.647493456,11589362.034360569,,89.144.221.151
15152,fonira Telekom GmbH,Vienna,2018-10-28T20:20:03.377541Z,1.052727892950781,62.908,6464933.19608756,11112118.792030288,,89.144.221.151
5351,UPC Austria,Vienna,2018-10-28T20:30:04.058523Z,1.071761208360333,55.173,3551555.9282363122,11006874.254020076,,89.144.221.151
3744,Nessus GmbH (10G Uplink),Vienna,2018-10-28T20:40:03.306052Z,1.071761208360333,53.133,3566027.5013116235,11290043.372940065,,89.144.221.151
1738,www.drei.at,Vienna,2018-10-28T20:50:04.090055Z,1.071761208360333,47.262,5890694.11334161,11391863.156976406,,89.144.221.151
3744,Nessus GmbH (10G Uplink),Vienna,2018-10-28T21:00:03.440724Z,1.071761208360333,67.477,6180405.784273386,11089335.526185265,,89.144.221.151
1738,www.drei.at,Vienna,2018-10-28T21:10:03.613092Z,1.071761208360333,53.153,2480370.393182176,11881750.42952909,,89.144.221.151
15152,fonira Telekom GmbH,Vienna,2018-10-28T21:20:03.479508Z,1.052727892950781,65.949,3162898.8127887244,11670333.3779764,,89.144.221.151
3744,Nessus GmbH (10G Uplink),Vienna,2018-10-28T21:30:03.906002Z,1.071761208360333,65.855,3968292.5422711587,11175888.806088043,,89.144.221.151
5351,UPC Austria,Vienna,2018-10-28T21:40:03.719937Z,1.071761208360333,52.076,4004652.789736892,11105660.66940267,,89.144.221.151
1738,www.drei.at,Vienna,2018-10-28T21:50:03.166630Z,1.071761208360333,51.8,9037746.907506084,12012860.875135193,,89.144.221.151
3744,Nessus GmbH (10G Uplink),Vienna,2018-10-28T22:00:04.059158Z,1.071761208360333,58.944,11744768.348020267,11574086.471713401,,89.144.221.151
3744,Nessus GmbH (10G Uplink),Vienna,2018-10-28T22:10:03.695722Z,1.071761208360333,67.289,12814335.97391977,11225669.186383188,,89.144.221.151
3744,Nessus GmbH (10G Uplink),Vienna,2018-10-28T22:20:03.681759Z,1.071761208360333,66.266,12082245.634499228,11661717.759413075,,89.144.221.151
3744,Nessus GmbH (10G Uplink),Vienna,2018-10-28T22:30:04.056616Z,1.071761208360333,56.886,9698935.669348685,11432413.617414135,,89.144.221.151
5351,UPC Austria,Vienna,2018-10-28T22:40:03.713723Z,1.071761208360333,45.876,19328944.23732711,11056166.101386657,,89.144.221.151
1738,www.drei.at,Vienna,2018-10-28T22:50:03.983886Z,1.071761208360333,47.111,21288678.184923995,11367701.795805018,,89.144.221.151
15152,fonira Telekom GmbH,Vienna,2018-10-28T23:00:03.249691Z,1.052727892950781,64.987,15312767.396054009,10934397.191822426,,89.144.221.151
3744,Nessus GmbH (10G Uplink),Vienna,2018-10-28T23:10:03.141679Z,1.071761208360333,79.265,8656738.048942048,11418888.773328695,,89.144.221.151
5351,UPC Austria,Vienna,2018-10-28T23:20:03.567679Z,1.071761208360333,45.467,9367634.919295039,10468722.559783384,,89.144.221.151
3744,Nessus GmbH (10G Uplink),Vienna,2018-10-28T23:30:03.636103Z,1.071761208360333,68.248,17501793.60719609,11346896.388560511,,89.144.221.151
3744,Nessus GmbH (10G Uplink),Vienna,2018-10-28T23:40:03.294435Z,1.071761208360333,59.232,22412409.572193835,10591389.857355377,,89.144.221.151
1738,www.drei.at,Vienna,2018-10-28T23:50:03.612517Z,1.071761208360333,39.796,40356001.6617094,11323503.274037438,,89.144.221.151
3744,Nessus GmbH (10G Uplink),Vienna,2018-10-29T00:00:03.941503Z,1.071761208360333,43.405,34244454.290570274,11052144.052944517,,89.144.221.151
1738,www.drei.at,Vienna,2018-10-29T00:10:03.496163Z,1.071761208360333,40.752,39624516.583859,11273736.988561463,,89.144.221.151
1738,www.drei.at,Vienna,2018-10-29T00:20:03.506469Z,1.071761208360333,39.539,38454768.810247384,11009878.993091822,,89.144.221.151
3744,Nessus GmbH (10G Uplink),Vienna,2018-10-29T00:30:03.297832Z,1.071761208360333,47.481,38978245.78193416,10698892.61158044,,89.144.221.151
3744,Nessus GmbH (10G Uplink),Vienna,2018-10-29T00:40:03.593968Z,1.071761208360333,41.67,39928572.1060939,11049470.932876296,,89.144.221.151
15152,fonira Telekom GmbH,Vienna,2018-10-29T00:50:03.912435Z,1.052727892950781,46.928,38674197.261720665,11009293.794558095,,89.144.221.151
3744,Nessus GmbH (10G Uplink),Vienna,2018-10-29T01:00:03.732213Z,1.071761208360333,49.71,39670374.21999536,11103419.597970529,,89.144.221.151
3744,Nessus GmbH (10G Uplink),Vienna,2018-10-29T01:10:03.081541Z,1.071761208360333,41.092,39254738.96395622,11040698.994725626,,89.144.221.151
3744,Nessus GmbH (10G Uplink),Vienna,2018-10-29T01:20:08.787978Z,1.071761208360333,39.261,39857703.11325047,11017604.95110165,,89.144.221.151
15172,Onstage Online GmbH,Vienna,2018-10-29T01:30:03.421939Z,1.052727892950781,71.571,38920851.83959085,11078813.051661106,,89.144.221.151
3744,Nessus GmbH (10G Uplink),Vienna,2018-10-29T01:40:03.079329Z,1.071761208360333,42.675,39985071.36325666,10770846.964913584,,89.144.221.151
1738,www.drei.at,Vienna,2018-10-29T01:50:03.453539Z,1.071761208360333,42.511,40094513.377744555,11017866.157080792,,89.144.221.151
5351,UPC Austria,Vienna,2018-10-29T02:00:04.135078Z,1.071761208360333,72.418,35035915.70540714,11064647.75795997,,89.144.221.151
1738,www.drei.at,Vienna,2018-10-29T02:10:03.525783Z,1.071761208360333,39.366,38092706.78240071,11004562.81943229,,89.144.221.151
3744,Nessus GmbH (10G Uplink),Vienna,2018-10-29T02:20:03.125809Z,1.071761208360333,44.432,39607723.9425884,10808230.888358833,,89.144.221.151
1738,www.drei.at,Vienna,2018-10-29T02:30:03.208476Z,1.071761208360333,41.341,40130438.357161894,11047893.165638255,,89.144.221.151
1738,www.drei.at,Vienna,2018-10-29T02:40:08.197489Z,1.071761208360333,41.05,40215091.70295462,11034564.622395346,,89.144.221.151
1738,www.drei.at,Vienna,2018-10-29T02:50:03.998390Z,1.071761208360333,40.884,40673414.52967938,10848391.99996852,,89.144.221.151
3744,Nessus GmbH (10G Uplink),Vienna,2018-10-29T03:00:04.329058Z,1.071761208360333,45.849,39363229.275233164,11072857.758749684,,89.144.221.151
5351,UPC Austria,Vienna,2018-10-29T03:10:03.269688Z,1.071761208360333,43.74,37423198.823254384,10767927.434218675,,89.144.221.151
1738,www.drei.at,Vienna,2018-10-29T03:20:04.053260Z,1.071761208360333,41.314,40353997.11582363,10791960.80472477,,89.144.221.151
5351,UPC Austria,Vienna,2018-10-29T03:30:04.119354Z,1.071761208360333,48.901,38221299.10365374,11004306.471268978,,89.144.221.151
1738,www.drei.at,Vienna,2018-10-29T03:40:03.472126Z,1.071761208360333,44.944,40423967.93869141,11660397.055132704,,89.144.221.151
15152,fonira Telekom GmbH,Vienna,2018-10-29T03:50:03.331694Z,1.052727892950781,56.035,40133523.609302364,11744398.319282563,,89.144.221.151
1738,www.drei.at,Vienna,2018-10-29T04:00:03.962901Z,1.071761208360333,43.471,33013171.902863704,11600762.286658013,,89.144.221.151
3744,Nessus GmbH (10G Uplink),Vienna,2018-10-29T04:10:03.874254Z,1.071761208360333,70.997,38553200.28696868,10800034.755926214,,89.144.221.151
3744,Nessus GmbH (10G Uplink),Vienna,2018-10-29T04:20:03.632750Z,1.071761208360333,57.426,36573786.602007575,11431564.831730435,,89.144.221.151
1738,www.drei.at,Vienna,2018-10-29T04:30:03.599585Z,1.071761208360333,42.602,40598102.48309707,11034975.301038537,,89.144.221.151
3744,Nessus GmbH (10G Uplink),Vienna,2018-10-29T04:40:03.867989Z,1.071761208360333,59.217,39251078.74391273,11001166.72679482,,89.144.221.151
3744,Nessus GmbH (10G Uplink),Vienna,2018-10-29T04:50:03.833092Z,1.071761208360333,70.738,29384206.21937929,10911417.352512673,,89.144.221.151
15152,fonira Telekom GmbH,Vienna,2018-10-29T05:00:04.101351Z,1.052727892950781,75.853,39151271.534215756,11068785.682594812,,89.144.221.151
3744,Nessus GmbH (10G Uplink),Vienna,2018-10-29T05:10:03.255616Z,1.071761208360333,69.079,19805623.25260677,11646670.374920564,,89.144.221.151
3744,Nessus GmbH (10G Uplink),Vienna,2018-10-29T05:20:03.723871Z,1.071761208360333,78.652,34814614.914846815,10981413.53469646,,89.144.221.151
5351,UPC Austria,Vienna,2018-10-29T05:30:03.679089Z,1.071761208360333,78.93,29865445.120710466,10988939.753364827,,89.144.221.151
5351,UPC Austria,Vienna,2018-10-29T05:40:03.652233Z,1.071761208360333,79.018,21494329.55312586,11083423.58404288,,89.144.221.151
1738,www.drei.at,Vienna,2018-10-29T05:50:03.617220Z,1.071761208360333,78.988,28155693.778947033,10975751.251536747,,89.144.221.151
15152,fonira Telekom GmbH,Vienna,2018-10-29T06:00:04.093623Z,1.052727892950781,84.732,7431019.420770314,10753654.086505309,,89.144.221.151
1738,www.drei.at,Vienna,2018-10-29T06:10:03.545218Z,1.071761208360333,60.966,7998730.703211389,11562646.816858577,,89.144.221.151
15172,Onstage Online GmbH,Vienna,2018-10-29T06:20:03.207935Z,1.052727892950781,52.05,35658576.03947089,11517809.934760101,,89.144.221.151
3744,Nessus GmbH (10G Uplink),Vienna,2018-10-29T06:30:03.369706Z,1.071761208360333,72.307,37059533.75517665,11568148.15584073,,89.144.221.151
3744,Nessus GmbH (10G Uplink),Vienna,2018-10-29T06:40:04.355277Z,1.071761208360333,65.987,34813043.874159366,11023096.420779813,,89.144.221.151
3744,Nessus GmbH (10G Uplink),Vienna,2018-10-29T06:50:03.600660Z,1.071761208360333,61.162,35013210.58535498,11671550.584500518,,89.144.221.151
15152,fonira Telekom GmbH,Vienna,2018-10-29T07:00:04.077851Z,1.052727892950781,76.466,29837605.41376879,11442403.884084346,,89.144.221.151
1738,www.drei.at,Vienna,2018-10-29T07:10:03.943036Z,1.071761208360333,50.431,36244740.693931475,11110290.567331538,,89.144.221.151
1738,www.drei.at,Vienna,2018-10-29T07:20:03.806242Z,1.071761208360333,63.066,26998572.60437701,11023563.05666762,,89.144.221.151
1738,www.drei.at,Vienna,2018-10-29T07:30:03.775219Z,1.071761208360333,84.767,34733641.922024995,10920012.04705268,,89.144.221.151
1738,www.drei.at,Vienna,2018-10-29T07:40:03.229255Z,1.071761208360333,76.957,18297020.583356977,9081613.350749196,,89.144.221.151
3744,Nessus GmbH (10G Uplink),Vienna,2018-10-29T07:50:04.016518Z,1.071761208360333,74.47,32743184.846003998,11371665.398906942,,89.144.221.151
5351,UPC Austria,Vienna,2018-10-29T08:00:03.574817Z,1.071761208360333,78.047,34545193.26153909,11256739.290947948,,89.144.221.151
1738,www.drei.at,Vienna,2018-10-29T08:10:04.056281Z,1.071761208360333,78.206,30547596.92582949,11368193.302661436,,89.144.221.151
15172,Onstage Online GmbH,Vienna,2018-10-29T08:20:03.819971Z,1.052727892950781,65.95,28163846.040390328,11350138.339198167,,89.144.221.151
15152,fonira Telekom GmbH,Vienna,2018-10-29T08:30:03.482050Z,1.052727892950781,76.606,30813693.758594964,11427347.889583386,,89.144.221.151
3744,Nessus GmbH (10G Uplink),Vienna,2018-10-29T08:40:03.848379Z,1.071761208360333,76.561,26984534.055166066,11271698.159400195,,89.144.221.151
3744,Nessus GmbH (10G Uplink),Vienna,2018-10-29T08:50:04.019399Z,1.071761208360333,67.294,29513148.68517018,11478282.72608491,,89.144.221.151
15152,fonira Telekom GmbH,Vienna,2018-10-29T09:00:03.579156Z,1.052727892950781,73.223,16701682.179574443,11147463.414759299,,89.144.221.151
15152,fonira Telekom GmbH,Vienna,2018-10-29T09:10:03.749493Z,1.052727892950781,77.365,38813093.10372024,11182818.64620108,,89.144.221.151
1738,www.drei.at,Vienna,2018-10-29T09:20:04.227149Z,1.071761208360333,63.466,31504105.502943996,11532952.044123681,,89.144.221.151
3744,Nessus GmbH (10G Uplink),Vienna,2018-10-29T09:30:03.398951Z,1.071761208360333,67.007,33106784.659722336,11351925.67362301,,89.144.221.151
15152,fonira Telekom GmbH,Vienna,2018-10-29T09:40:03.744778Z,1.052727892950781,66.457,31298588.883758344,10796856.44813742,,89.144.221.151
3744,Nessus GmbH (10G Uplink),Vienna,2018-10-29T09:50:03.683055Z,1.071761208360333,72.812,33587482.875144646,10816617.95941439,,89.144.221.151
1738,www.drei.at,Vienna,2018-10-29T10:00:03.673795Z,1.071761208360333,78.62,23507781.692374066,11761728.853811217,,89.144.221.151
5351,UPC Austria,Vienna,2018-10-29T10:10:03.436156Z,1.071761208360333,78.318,21767567.37492742,10853666.641612051,,89.144.221.151
15152,fonira Telekom GmbH,Vienna,2018-10-29T10:20:03.500232Z,1.052727892950781,77.48,5970523.00335087,11707924.893332357,,89.144.221.151
15172,Onstage Online GmbH,Vienna,2018-10-29T10:30:03.464785Z,1.052727892950781,80.785,8740549.45328454,11015259.30686579,,89.144.221.151
1738,www.drei.at,Vienna,2018-10-29T10:40:03.945269Z,1.071761208360333,78.614,19651512.03590192,11627819.732500888,,89.144.221.151
15152,fonira Telekom GmbH,Vienna,2018-10-29T10:50:03.187001Z,1.052727892950781,75.963,28520823.649920072,10852426.233919958,,89.144.221.151
3744,Nessus GmbH (10G Uplink),Vienna,2018-10-29T11:00:03.172368Z,1.071761208360333,79.252,16099659.844169572,11027721.553051326,,89.144.221.151
1738,www.drei.at,Vienna,2018-10-29T11:10:03.934031Z,1.071761208360333,70.086,8783895.64365356,10703208.307198271,,89.144.221.151
3744,Nessus GmbH (10G Uplink),Vienna,2018-10-29T11:20:03.898292Z,1.071761208360333,79.225,11356287.896798205,11034409.345374936,,89.144.221.151
15172,Onstage Online GmbH,Vienna,2018-10-29T11:30:03.554593Z,1.052727892950781,75.911,22927786.410211317,11367042.680761274,,89.144.221.151
3744,Nessus GmbH (10G Uplink),Vienna,2018-10-29T11:40:03.466426Z,1.071761208360333,75.85,29955176.864516445,10994637.0932277,,89.144.221.151
3744,Nessus GmbH (10G Uplink),Vienna,2018-10-29T11:50:04.196099Z,1.071761208360333,85.172,29222119.09361636,10991342.47606763,,89.144.221.151
5351,UPC Austria,Vienna,2018-10-29T12:00:03.956649Z,1.071761208360333,75.214,29287265.908122245,10980059.157711536,,89.144.221.151
15152,fonira Telekom GmbH,Vienna,2018-10-29T12:10:03.407959Z,1.052727892950781,79.016,29785198.00000617,10927622.487555671,,89.144.221.151
15152,fonira Telekom GmbH,Vienna,2018-10-29T12:20:03.676820Z,1.052727892950781,65.67,18671971.345329195,11718290.577863416,,89.144.221.151
15152,fonira Telekom GmbH,Vienna,2018-10-29T12:30:03.228577Z,1.052727892950781,64.829,18194649.25256642,11578922.594259745,,89.144.221.151
15172,Onstage Online GmbH,Vienna,2018-10-29T12:40:03.604558Z,1.052727892950781,75.671,16480082.938972594,10752025.583369153,,89.144.221.151
15152,fonira Telekom GmbH,Vienna,2018-10-29T12:50:03.876692Z,1.052727892950781,78.617,9519537.367303673,11486532.174212242,,89.144.221.151
3744,Nessus GmbH (10G Uplink),Vienna,2018-10-29T13:00:03.424283Z,1.071761208360333,81.268,17418843.273015443,11010679.407636655,,89.144.221.151
3744,Nessus GmbH (10G Uplink),Vienna,2018-10-29T13:10:03.798427Z,1.071761208360333,78.191,16771944.711002259,11496581.509371273,,89.144.221.151
1738,www.drei.at,Vienna,2018-10-29T13:20:03.867300Z,1.071761208360333,77.534,23805590.276999008,11022101.875301829,,89.144.221.151
15152,fonira Telekom GmbH,Vienna,2018-10-29T13:30:04.025780Z,1.052727892950781,79.039,18090238.353830256,10871511.119691676,,89.144.221.151
1738,www.drei.at,Vienna,2018-10-29T13:40:03.577820Z,1.071761208360333,78.994,14733762.9432397,10992729.795700287,,89.144.221.151
1738,www.drei.at,Vienna,2018-10-29T13:50:03.745326Z,1.071761208360333,79.002,28755265.14575861,10918744.0205813,,89.144.221.151
15172,Onstage Online GmbH,Vienna,2018-10-29T14:00:03.399386Z,1.052727892950781,69.789,15484178.665919632,10755104.709243983,,89.144.221.151
3744,Nessus GmbH (10G Uplink),Vienna,2018-10-29T14:10:03.266863Z,1.071761208360333,79.136,24262351.123916212,11699439.750112569,,89.144.221.151
1738,www.drei.at,Vienna,2018-10-29T14:20:03.898186Z,1.071761208360333,49.728,25353654.88603135,11010163.672344469,,89.144.221.151
3744,Nessus GmbH (10G Uplink),Vienna,2018-10-29T14:30:03.849376Z,1.071761208360333,78.66,27721164.7250769,10927386.987317435,,89.144.221.151
3744,Nessus GmbH (10G Uplink),Vienna,2018-10-29T14:40:04.193690Z,1.071761208360333,72.719,28394276.050188795,11166321.397795524,,89.144.221.151
15152,fonira Telekom GmbH,Vienna,2018-10-29T14:50:03.342128Z,1.052727892950781,69.65,18266061.458095435,11020114.170855932,,89.144.221.151
5351,UPC Austria,Vienna,2018-10-29T15:00:03.206022Z,1.071761208360333,69.684,20224635.7407555,11076104.859405842,,89.144.221.151
15152,fonira Telekom GmbH,Vienna,2018-10-29T15:10:03.579366Z,1.052727892950781,65.811,8742921.858187545,10824622.667338662,,89.144.221.151
5351,UPC Austria,Vienna,2018-10-29T15:20:04.059781Z,1.071761208360333,78.193,14197835.267307604,11486511.699044943,,89.144.221.151
1738,www.drei.at,Vienna,2018-10-29T15:30:03.969816Z,1.071761208360333,78.779,18844882.204202726,11320009.22064072,,89.144.221.151
3744,Nessus GmbH (10G Uplink),Vienna,2018-10-29T15:40:03.890739Z,1.071761208360333,71.027,13430718.331227839,11226129.047961006,,89.144.221.151
1738,www.drei.at,Vienna,2018-10-29T15:50:03.648670Z,1.071761208360333,72.259,7909018.66850017,10881989.04565711,,89.144.221.151
5351,UPC Austria,Vienna,2018-10-29T16:00:07.059087Z,1.071761208360333,76.884,14839133.534753237,11333311.005983163,,89.144.221.151
1738,www.drei.at,Vienna,2018-10-29T16:10:04.403456Z,1.071761208360333,78.928,27582240.518770624,10987848.821694272,,89.144.221.151
3744,Nessus GmbH (10G Uplink),Vienna,2018-10-29T16:20:03.341103Z,1.071761208360333,78.852,19848114.280625023,11437101.89237053,,89.144.221.151
1738,www.drei.at,Vienna,2018-10-29T16:30:03.303810Z,1.071761208360333,78.984,9803998.8253451,10979500.364195501,,89.144.221.151
15152,fonira Telekom GmbH,Vienna,2018-10-29T16:40:03.371341Z,1.052727892950781,76.636,25346631.252305392,11328395.538247611,,89.144.221.151
5351,UPC Austria,Vienna,2018-10-29T16:50:04.048287Z,1.071761208360333,81.17,8596142.517423175,10979637.16734508,,89.144.221.151
3744,Nessus GmbH (10G Uplink),Vienna,2018-10-29T17:00:03.806618Z,1.071761208360333,79.176,21348934.42485894,11510488.986268733,,89.144.221.151
3744,Nessus GmbH (10G Uplink),Vienna,2018-10-29T17:10:04.076611Z,1.071761208360333,79.662,11300261.662802752,10871575.600105258,,89.144.221.151
3744,Nessus GmbH (10G Uplink),Vienna,2018-10-29T17:20:03.630285Z,1.071761208360333,73.104,14469752.426805917,11868718.751377936,,89.144.221.151
3744,Nessus GmbH (10G Uplink),Vienna,2018-10-29T17:30:03.490212Z,1.071761208360333,58.05,21154049.58029172,11274271.585854469,,89.144.221.151
3744,Nessus GmbH (10G Uplink),Vienna,2018-10-29T17:40:03.455085Z,1.071761208360333,65.796,27262281.142621476,11121097.137431169,,89.144.221.151
3744,Nessus GmbH (10G Uplink),Vienna,2018-10-29T17:50:03.274308Z,1.071761208360333,86.116,27375329.489441972,11247660.590278707,,89.144.221.151
15152,fonira Telekom GmbH,Vienna,2018-10-29T18:00:04.090945Z,1.052727892950781,76.455,8248173.884399138,10793587.679326607,,89.144.221.151
3744,Nessus GmbH (10G Uplink),Vienna,2018-10-29T18:10:05.499053Z,1.071761208360333,56.03,1327377.5501552494,9058485.391792182,,89.144.221.151
1738,www.drei.at,Vienna,2018-10-29T18:20:05.555653Z,1.071761208360333,87.486,4775074.442266783,5720594.874629968,,89.144.221.151
3744,Nessus GmbH (10G Uplink),Vienna,2018-10-29T18:30:03.166652Z,1.071761208360333,64.066,7354216.284260519,10254631.230190303,,89.144.221.151
15172,Onstage Online GmbH,Vienna,2018-10-29T18:40:04.825725Z,1.052727892950781,103.502,2648583.8106668987,9837543.3932039,,89.144.221.151
5351,UPC Austria,Vienna,2018-10-29T18:50:04.234425Z,1.071761208360333,61.435,2816953.8265979527,3210052.5157753164,,89.144.221.151
3744,Nessus GmbH (10G Uplink),Vienna,2018-10-29T19:00:03.969640Z,1.071761208360333,129.267,3405830.689986607,7570996.288879004,,89.144.221.151
5351,UPC Austria,Vienna,2018-10-29T19:10:04.410218Z,1.071761208360333,56.488,1235707.5985060052,7115247.139660294,,89.144.221.151
5351,UPC Austria,Vienna,2018-10-29T19:20:03.688028Z,1.071761208360333,78.587,834787.2709325318,3363196.3464188585,,89.144.221.151
5351,UPC Austria,Vienna,2018-10-29T19:30:03.855620Z,1.071761208360333,71.695,2497771.051625875,11760406.991295047,,89.144.221.151
1738,www.drei.at,Vienna,2018-10-29T19:40:04.024603Z,1.071761208360333,65.753,5909378.171935539,11614397.477813369,,89.144.221.151
5351,UPC Austria,Vienna,2018-10-29T19:50:05.374882Z,1.071761208360333,60.998,4150393.4838695317,11178972.992853425,,89.144.221.151
3744,Nessus GmbH (10G Uplink),Vienna,2018-10-29T20:00:04.471107Z,1.071761208360333,62.052,4926722.257848206,11463651.164647214,,89.144.221.151
1738,www.drei.at,Vienna,2018-10-29T20:10:03.200586Z,1.071761208360333,62.243,5740384.056150393,11046393.559864938,,89.144.221.151
1738,www.drei.at,Vienna,2018-10-29T20:20:03.374709Z,1.071761208360333,58.664,7480105.395338558,11650037.395981254,,89.144.221.151
1738,www.drei.at,Vienna,2018-10-29T20:30:03.240165Z,1.071761208360333,64.185,6535319.471802828,11320909.737072334,,89.144.221.151
3744,Nessus GmbH (10G Uplink),Vienna,2018-10-29T20:40:04.234314Z,1.071761208360333,143.449,1655388.4681667297,10278575.393847717,,89.144.221.151
1738,www.drei.at,Vienna,2018-10-29T20:50:03.896499Z,1.071761208360333,56.502,2532001.180515144,10741461.478339763,,89.144.221.151
1738,www.drei.at,Vienna,2018-10-29T21:00:04.069952Z,1.071761208360333,58.946,2985047.551134376,11780103.561986472,,89.144.221.151
3744,Nessus GmbH (10G Uplink),Vienna,2018-10-29T21:10:04.116754Z,1.071761208360333,169.06,3209233.571399497,8666375.448416395,,89.144.221.151
5351,UPC Austria,Vienna,2018-10-29T21:20:03.432914Z,1.071761208360333,87.435,5207655.034204313,10444834.195547199,,89.144.221.151
3744,Nessus GmbH (10G Uplink),Vienna,2018-10-29T21:30:03.773824Z,1.071761208360333,51.855,26950187.33213422,10286790.48882045,,89.144.221.151
3744,Nessus GmbH (10G Uplink),Vienna,2018-10-29T21:40:03.841056Z,1.071761208360333,61.888,12826637.2997426,11111430.293575598,,89.144.221.151
3744,Nessus GmbH (10G Uplink),Vienna,2018-10-29T21:50:03.908574Z,1.071761208360333,63.567,16717895.180439277,11532426.43279267,,89.144.221.151
15172,Onstage Online GmbH,Vienna,2018-10-29T22:00:03.669000Z,1.052727892950781,71.307,20724360.965759665,11350727.296935104,,89.144.221.151
3744,Nessus GmbH (10G Uplink),Vienna,2018-10-29T22:10:03.653779Z,1.071761208360333,47.292,22764585.665462054,11514817.876026971,,89.144.221.151
3744,Nessus GmbH (10G Uplink),Vienna,2018-10-29T22:20:03.600533Z,1.071761208360333,59.792,25205083.4918183,11334022.701854054,,89.144.221.151
1738,www.drei.at,Vienna,2018-10-29T22:30:03.766307Z,1.071761208360333,59.698,23161485.794234585,11119462.765972544,,89.144.221.151
3744,Nessus GmbH (10G Uplink),Vienna,2018-10-29T22:40:03.322817Z,1.071761208360333,65.877,32790085.892329123,11014472.955819987,,89.144.221.151
3744,Nessus GmbH (10G Uplink),Vienna,2018-10-29T22:50:03.067493Z,1.071761208360333,55.425,34612278.60702695,11441208.684234967,,89.144.221.151
3744,Nessus GmbH (10G Uplink),Vienna,2018-10-29T23:00:03.766598Z,1.071761208360333,66.742,29603153.983109556,11014465.641073173,,89.144.221.151
15152,fonira Telekom GmbH,Vienna,2018-10-29T23:10:04.148423Z,1.052727892950781,65.353,25755950.432268303,11034814.439234145,,89.144.221.151
3744,Nessus GmbH (10G Uplink),Vienna,2018-10-29T23:20:03.598375Z,1.071761208360333,42.552,28188442.05475314,11026279.37182862,,89.144.221.151
5351,UPC Austria,Vienna,2018-10-29T23:30:03.359442Z,1.071761208360333,43.181,33413554.136043675,11070086.786109556,,89.144.221.151
1738,www.drei.at,Vienna,2018-10-29T23:40:03.226536Z,1.071761208360333,50.159,37326541.59144416,11539325.231709978,,89.144.221.151
1738,www.drei.at,Vienna,2018-10-29T23:50:03.191499Z,1.071761208360333,39.215,34651364.74312428,10946177.641183527,,89.144.221.151
3744,Nessus GmbH (10G Uplink),Vienna,2018-10-30T00:00:04.080699Z,1.071761208360333,50.039,36805659.44076251,11091443.388331993,,89.144.221.151
5351,UPC Austria,Vienna,2018-10-30T00:10:04.048386Z,1.071761208360333,45.477,34504832.15591039,10800671.685401497,,89.144.221.151
1738,www.drei.at,Vienna,2018-10-30T00:20:03.199443Z,1.071761208360333,42.298,38684047.744846076,11369820.382845826,,89.144.221.151
5351,UPC Austria,Vienna,2018-10-30T00:30:03.268641Z,1.071761208360333,66.08,37419627.92495849,10985810.030307058,,89.144.221.151
15152,fonira Telekom GmbH,Vienna,2018-10-30T00:40:03.174806Z,1.052727892950781,50.826,36472858.25881767,11074578.723417176,,89.144.221.151
5351,UPC Austria,Vienna,2018-10-30T00:50:03.612581Z,1.071761208360333,70.313,38674961.64210224,10961273.012953173,,89.144.221.151
5351,UPC Austria,Vienna,2018-10-30T01:00:04.244316Z,1.071761208360333,74.251,38916992.55529858,11020011.216049962,,89.144.221.151
15172,Onstage Online GmbH,Vienna,2018-10-30T01:10:03.854240Z,1.052727892950781,52.164,40170193.88590876,11048549.264029203,,89.144.221.151
1738,www.drei.at,Vienna,2018-10-30T01:20:03.724576Z,1.071761208360333,41.213,39860629.15886071,10904351.592320368,,89.144.221.151
5351,UPC Austria,Vienna,2018-10-30T01:30:03.792579Z,1.071761208360333,41.977,37769459.51101371,11025832.966330597,,89.144.221.151
1738,www.drei.at,Vienna,2018-10-30T01:40:03.548754Z,1.071761208360333,41.586,37067314.99315423,10897980.170672651,,89.144.221.151
3744,Nessus GmbH (10G Uplink),Vienna,2018-10-30T01:50:03.721128Z,1.071761208360333,41.554,40030511.394467,11028511.532926569,,89.144.221.151
5351,UPC Austria,Vienna,2018-10-30T02:00:03.993994Z,1.071761208360333,50.4,24815255.833924867,11476601.186933225,,89.144.221.151
5351,UPC Austria,Vienna,2018-10-30T02:10:03.345765Z,1.071761208360333,40.023,37547938.27510905,10860735.045450756,,89.144.221.151
1738,www.drei.at,Vienna,2018-10-30T02:20:03.412534Z,1.071761208360333,38.329,40564523.05146399,11851834.801633678,,89.144.221.151
1738,www.drei.at,Vienna,2018-10-30T02:30:03.787897Z,1.071761208360333,42.737,38859169.48027604,10937287.6479232,,89.144.221.151
1738,www.drei.at,Vienna,2018-10-30T02:40:04.058910Z,1.071761208360333,45.662,38968678.627755955,11092368.1807265,,89.144.221.151
1738,www.drei.at,Vienna,2018-10-30T02:50:03.762997Z,1.071761208360333,42.066,32690594.03611574,10859962.503757533,,89.144.221.151
3744,Nessus GmbH (10G Uplink),Vienna,2018-10-30T03:00:03.310582Z,1.071761208360333,51.463,37089853.86697305,10815373.910380173,,89.144.221.151
3744,Nessus GmbH (10G Uplink),Vienna,2018-10-30T03:10:03.439356Z,1.071761208360333,45.19,33336968.92901512,11078166.801037261,,89.144.221.151
1738,www.drei.at,Vienna,2018-10-30T03:20:03.856178Z,1.071761208360333,40.676,35366014.90265575,10791622.25412145,,89.144.221.151
3744,Nessus GmbH (10G Uplink),Vienna,2018-10-30T03:30:03.755372Z,1.071761208360333,42.496,40202829.74111426,10931279.653796526,,89.144.221.151
3744,Nessus GmbH (10G Uplink),Vienna,2018-10-30T03:40:04.153396Z,1.071761208360333,56.72,39850288.34397121,10883765.323820071,,89.144.221.151
1738,www.drei.at,Vienna,2018-10-30T03:50:03.503555Z,1.071761208360333,42.678,26070567.63258098,10931746.985454157,,89.144.221.151
1738,www.drei.at,Vienna,2018-10-30T04:00:04.184056Z,1.071761208360333,79.267,19174490.0413505,11040280.852876248,,89.144.221.151
5351,UPC Austria,Vienna,2018-10-30T04:10:03.158779Z,1.071761208360333,50.297,11879236.835400049,11749854.256648911,,89.144.221.151
15172,Onstage Online GmbH,Vienna,2018-10-30T04:20:04.315320Z,1.052727892950781,48.113,20402209.727489486,10980292.119109727,,89.144.221.151
15152,fonira Telekom GmbH,Vienna,2018-10-30T04:30:04.073563Z,1.052727892950781,73.803,17082044.181410808,11056870.345876057,,89.144.221.151
3744,Nessus GmbH (10G Uplink),Vienna,2018-10-30T04:40:03.830216Z,1.071761208360333,78.531,21666544.377152525,11041932.794065343,,89.144.221.151
15152,fonira Telekom GmbH,Vienna,2018-10-30T04:50:03.378031Z,1.052727892950781,67.842,22975378.779047184,11012301.131361859,,89.144.221.151
15152,fonira Telekom GmbH,Vienna,2018-10-30T05:00:04.565590Z,1.052727892950781,79.138,28476057.24031709,11025154.46824444,,89.144.221.151
3744,Nessus GmbH (10G Uplink),Vienna,2018-10-30T05:10:03.703839Z,1.071761208360333,63.061,26102444.334901914,11049408.145684205,,89.144.221.151
15152,fonira Telekom GmbH,Vienna,2018-10-30T05:20:04.278182Z,1.052727892950781,79.096,17883493.47189462,11051896.718996802,,89.144.221.151
5351,UPC Austria,Vienna,2018-10-30T05:30:03.933973Z,1.071761208360333,78.901,11756138.909978602,11539250.199824894,,89.144.221.151
5351,UPC Austria,Vienna,2018-10-30T05:40:03.289058Z,1.071761208360333,65.886,10168431.53990541,11606561.37876049,,89.144.221.151
1738,www.drei.at,Vienna,2018-10-30T05:50:04.075434Z,1.071761208360333,52.57,10275868.12897094,11101964.280958055,,89.144.221.151
15152,fonira Telekom GmbH,Vienna,2018-10-30T06:00:03.733981Z,1.052727892950781,69.451,5717992.783771552,11098149.604191495,,89.144.221.151
3744,Nessus GmbH (10G Uplink),Vienna,2018-10-30T06:10:03.389422Z,1.071761208360333,78.122,13374968.343395436,11387129.09958358,,89.144.221.151
3744,Nessus GmbH (10G Uplink),Vienna,2018-10-30T06:20:04.105830Z,1.071761208360333,66.231,20067945.90933314,11393340.622936834,,89.144.221.151
3744,Nessus GmbH (10G Uplink),Vienna,2018-10-30T06:30:03.621782Z,1.071761208360333,68.56,27425147.5361534,11367479.663538566,,89.144.221.151
1738,www.drei.at,Vienna,2018-10-30T06:40:03.377767Z,1.071761208360333,65.579,16595314.91440514,11480388.195789075,,89.144.221.151
3744,Nessus GmbH (10G Uplink),Vienna,2018-10-30T06:50:03.238019Z,1.071761208360333,82.577,24211603.231287234,11185347.175813444,,89.144.221.151
15152,fonira Telekom GmbH,Vienna,2018-10-30T07:00:03.612644Z,1.052727892950781,69.496,25198864.422840144,11019958.394287746,,89.144.221.151
3744,Nessus GmbH (10G Uplink),Vienna,2018-10-30T07:10:03.271717Z,1.071761208360333,65.897,16905008.27158083,10984063.953420736,,89.144.221.151
15152,fonira Telekom GmbH,Vienna,2018-10-30T07:20:04.049786Z,1.052727892950781,72.418,19442115.662710693,10833184.088145254,,89.144.221.151
15152,fonira Telekom GmbH,Vienna,2018-10-30T07:30:03.502975Z,1.052727892950781,75.325,17621939.485658664,11010152.341302961,,89.144.221.151
5351,UPC Austria,Vienna,2018-10-30T07:40:03.571409Z,1.071761208360333,64.607,21809204.1807872,11155489.498795073,,89.144.221.151
1738,www.drei.at,Vienna,2018-10-30T07:50:03.719967Z,1.071761208360333,57.41,23270450.1554274,11641892.575760951,,89.144.221.151
15152,fonira Telekom GmbH,Vienna,2018-10-30T08:00:03.196859Z,1.052727892950781,85.543,18720120.862756293,10943560.120145962,,89.144.221.151
5351,UPC Austria,Vienna,2018-10-30T08:10:03.572577Z,1.071761208360333,72.568,16662001.124327518,11047937.30825018,,89.144.221.151
3744,Nessus GmbH (10G Uplink),Vienna,2018-10-30T08:20:04.051450Z,1.071761208360333,69.973,19274073.752086643,10985119.691255363,,89.144.221.151
3744,Nessus GmbH (10G Uplink),Vienna,2018-10-30T08:30:03.708282Z,1.071761208360333,78.833,28929723.363082398,11796454.086516958,,89.144.221.151
5351,UPC Austria,Vienna,2018-10-30T08:40:03.161551Z,1.071761208360333,79.476,31208973.119121287,11339254.084951298,,89.144.221.151
15152,fonira Telekom GmbH,Vienna,2018-10-30T08:50:03.946476Z,1.052727892950781,65.603,15348605.31338919,10919621.837759703,,89.144.221.151
15152,fonira Telekom GmbH,Vienna,2018-10-30T09:00:03.713219Z,1.052727892950781,85.812,23773204.315278143,10980094.076598989,,89.144.221.151
5351,UPC Austria,Vienna,2018-10-30T09:10:03.978168Z,1.071761208360333,57.526,15817974.374800652,11314809.43987845,,89.144.221.151
3744,Nessus GmbH (10G Uplink),Vienna,2018-10-30T09:20:03.839778Z,1.071761208360333,74.421,29663353.475200113,11509912.628994077,,89.144.221.151
3744,Nessus GmbH (10G Uplink),Vienna,2018-10-30T09:30:03.449964Z,1.071761208360333,78.144,26271144.34006959,10863601.942633705,,89.144.221.151
5351,UPC Austria,Vienna,2018-10-30T09:40:03.873002Z,1.071761208360333,50.813,4389746.785452756,11410001.383172374,,89.144.221.151
3744,Nessus GmbH (10G Uplink),Vienna,2018-10-30T09:50:04.146836Z,1.071761208360333,65.532,19850513.583392616,11012909.085167466,,89.144.221.151
5351,UPC Austria,Vienna,2018-10-30T10:00:03.394610Z,1.071761208360333,59.056,8722844.588345919,11359984.01528799,,89.144.221.151
3744,Nessus GmbH (10G Uplink),Vienna,2018-10-30T10:10:03.565359Z,1.071761208360333,57.428,27118279.343052283,11591950.460165292,,89.144.221.151
3744,Nessus GmbH (10G Uplink),Vienna,2018-10-30T10:20:03.960608Z,1.071761208360333,77.251,29623898.85029722,11406769.465007676,,89.144.221.151
15152,fonira Telekom GmbH,Vienna,2018-10-30T10:30:03.384990Z,1.052727892950781,55.722,9754544.56824035,11621372.863046382,,89.144.221.151
1738,www.drei.at,Vienna,2018-10-30T10:40:03.550093Z,1.071761208360333,79.13,10778914.013368512,10863923.96076593,,89.144.221.151
3744,Nessus GmbH (10G Uplink),Vienna,2018-10-30T10:50:04.127831Z,1.071761208360333,65.926,14673219.556745138,11966678.998104215,,89.144.221.151
5351,UPC Austria,Vienna,2018-10-30T11:00:03.887222Z,1.071761208360333,70.058,14111476.91283252,11291046.448135888,,89.144.221.151
5351,UPC Austria,Vienna,2018-10-30T11:10:03.240910Z,1.071761208360333,59.777,11678911.106818257,11927632.989326805,,89.144.221.151
15152,fonira Telekom GmbH,Vienna,2018-10-30T11:20:03.918108Z,1.052727892950781,75.366,15095330.713002505,11544118.72671401,,89.144.221.151
5351,UPC Austria,Vienna,2018-10-30T11:30:03.205216Z,1.071761208360333,51.353,14080159.231796486,11916299.750204813,,89.144.221.151
1738,www.drei.at,Vienna,2018-10-30T11:40:04.044466Z,1.071761208360333,52.078,18533936.816096045,11077869.048760569,,89.144.221.151
3744,Nessus GmbH (10G Uplink),Vienna,2018-10-30T11:50:04.005793Z,1.071761208360333,52.424,20132003.187692933,11497881.410309883,,89.144.221.151
5351,UPC Austria,Vienna,2018-10-30T12:00:03.907886Z,1.071761208360333,51.125,14699647.994616218,11603696.082270427,,89.144.221.151
1738,www.drei.at,Vienna,2018-10-30T12:10:03.355896Z,1.071761208360333,47.886,17925280.889240306,11029664.956820214,,89.144.221.151
1738,www.drei.at,Vienna,2018-10-30T12:20:03.430472Z,1.071761208360333,47.844,19480454.714251287,10238843.687497698,,89.144.221.151
3744,Nessus GmbH (10G Uplink),Vienna,2018-10-30T12:30:03.241987Z,1.071761208360333,63.691,22480417.0608331,11849694.085483195,,89.144.221.151
1738,www.drei.at,Vienna,2018-10-30T12:40:03.050153Z,1.071761208360333,67.814,25796587.25202772,11652003.159956232,,89.144.221.151
5351,UPC Austria,Vienna,2018-10-30T12:50:03.271617Z,1.071761208360333,63.858,25027215.050134294,11669382.212240905,,89.144.221.151
15172,Onstage Online GmbH,Vienna,2018-10-30T13:00:04.057302Z,1.052727892950781,63.215,22282781.805346582,11142455.38256505,,89.144.221.151
5351,UPC Austria,Vienna,2018-10-30T13:10:03.716301Z,1.071761208360333,52.909,29277685.504404694,11456987.742682183,,89.144.221.151
3744,Nessus GmbH (10G Uplink),Vienna,2018-10-30T13:20:08.470219Z,1.071761208360333,52.504,12086487.830429774,11143789.076777251,,89.144.221.151
3744,Nessus GmbH (10G Uplink),Vienna,2018-10-30T13:30:03.956631Z,1.071761208360333,65.906,9912911.939842736,11783860.390655193,,89.144.221.151
5351,UPC Austria,Vienna,2018-10-30T13:40:03.816129Z,1.071761208360333,64.351,30723420.140851483,11853494.463703727,,89.144.221.151
15152,fonira Telekom GmbH,Vienna,2018-10-30T13:50:03.272734Z,1.052727892950781,53.486,19874647.95574023,11488096.722574571,,89.144.221.151
5351,UPC Austria,Vienna,2018-10-30T14:00:03.963090Z,1.071761208360333,60.284,24039747.369648207,11407044.032292861,,89.144.221.151
15152,fonira Telekom GmbH,Vienna,2018-10-30T14:10:03.819143Z,1.052727892950781,77.182,24097076.811963744,11340843.583743501,,89.144.221.151
5351,UPC Austria,Vienna,2018-10-30T14:20:03.548194Z,1.071761208360333,49.234,24472036.749678303,11383268.230658252,,89.144.221.151
15152,fonira Telekom GmbH,Vienna,2018-10-30T14:30:03.853306Z,1.052727892950781,66.214,34896214.30665104,11085689.698568745,,89.144.221.151
15152,fonira Telekom GmbH,Vienna,2018-10-30T14:40:03.615024Z,1.052727892950781,84.096,35790279.3325579,11070349.781706894,,89.144.221.151
15152,fonira Telekom GmbH,Vienna,2018-10-30T14:50:03.888464Z,1.052727892950781,78.307,30852894.8454274,11622672.328468677,,89.144.221.151
3744,Nessus GmbH (10G Uplink),Vienna,2018-10-30T15:00:03.241722Z,1.071761208360333,64.214,8654527.443186086,11065317.815500913,,89.144.221.151
1738,www.drei.at,Vienna,2018-10-30T15:10:04.129227Z,1.071761208360333,60.984,13083596.310200403,10951691.954049023,,89.144.221.151
3744,Nessus GmbH (10G Uplink),Vienna,2018-10-30T15:20:03.381451Z,1.071761208360333,65.895,3698988.7304884163,11043731.349505723,,89.144.221.151
3744,Nessus GmbH (10G Uplink),Vienna,2018-10-30T15:30:03.754308Z,1.071761208360333,58.983,4572490.005138432,10603920.337419862,,89.144.221.151
3744,Nessus GmbH (10G Uplink),Vienna,2018-10-30T15:40:03.821482Z,1.071761208360333,60.102,14657245.027782694,11569606.908519149,,89.144.221.151
3744,Nessus GmbH (10G Uplink),Vienna,2018-10-30T15:50:03.582483Z,1.071761208360333,61.846,9381467.58534974,9799464.86970104,,89.144.221.151
